{
  "outputPath": "./src/contracts",
  "contracts": {
    "DaiContract": {
      "source": "etherscan",
      "net": "mainnet",
      "address": "0x89d24a6b4ccb1b6faa2625fe562bdd9a23260359"
    },
    "MANATokenContract": {
      "source": "etherscan",
      "net": "mainnet",
      "address": "0x0f5d2fb29fb7d3cfee444a200298f468908cc942"
    }    
  }
}
